…
The `data` argument is not required because we use the `%>%` operator so we pass the `gap_gdp_long` dataframe to the `pivot_longer()` function.   
Since we do not specify the `id_cols` argument, all remaining columns are used as identifier columns. Here, `continent` and `country` are used as identifier columns.  



No warning messages is good...but still let's check:

~~~
# A tibble: 142 x 14
   continent country                  `1952` `1957` `1962` `1967` `1972` `1977` `1982` `1987` `1992` `1997` `2002` `2007`
   <chr>     <chr>                     <dbl>  <dbl>  <dbl>  <dbl>  <dbl>  <dbl>  <dbl>  <dbl>  <dbl>  <dbl>  <dbl>  <dbl>
 1 Africa    Algeria                   2449.  3014.  2551.  3247.  4183.  4910.  5745.  5681.  5023.  4797.  5288.  6223.
 2 Africa    Angola                    3521.  3828.  4269.  5523.  5473.  3009.  2757.  2430.  2628.  2277.  2773.  4797.
 3 Africa    Benin                     1063.   960.   949.  1036.  1086.  1029.  1278.  1226.  1191.  1233.  1373.  1441.
 4 Africa    Botswana                   851.   918.   984.  1215.  2264.  3215.  4551.  6206.  7954.  8647. 11004. 12570.
 5 Africa    Burkina Faso               543.   617.   723.   795.   855.   743.   807.   912.   932.   946.  1038.  1217.
 6 Africa    Burundi                    339.   380.   355.   413.   464.   556.   560.   622.   632.   463.   446.   430.
 7 Africa    Cameroon                  1173.  1313.  1400.  1508.  1684.  1783.  2368.  2603.  1793.  1694.  1934.  2042.
 8 Africa    Central African Republic  1071.  1191.  1193.  1136.  1070.  1109.   957.   845.   748.   741.   739.   706.
 9 Africa    Chad                      1179.  1308.  1390.  1197.  1104.  1134.   798.   952.  1058.  1005.  1156.  1704.
10 Africa    Comoros                   1103.  1211.  1407.  1876.  1938.  1173.  1267.  1316.  1247.  1174.  1076.   986.
# … with 132 more rows
…
